\relax 
\@writefile{toc}{\contentsline {section}{\numberline {1}Introduction}{1}}
\@writefile{toc}{\contentsline {section}{\numberline {2}Origin}{1}}
\@writefile{lof}{\contentsline {figure}{\numberline {1}{\ignorespaces This is a figure of the errorfunciton between -3 and 3 calculated using c and the gnu scientific library.}}{2}}
\newlabel{fig:Err}{{1}{2}}
\@writefile{toc}{\contentsline {section}{\numberline {3}The code}{2}}
