\relax 
\@writefile{toc}{\contentsline {section}{\numberline {1}Theoretical Question}{1}}
\@writefile{toc}{\contentsline {section}{\numberline {2}Practical Question}{1}}
\@writefile{lof}{\contentsline {figure}{\numberline {1}{\ignorespaces This is a figure of the $\qopname  \relax o{arctan}$ fucntion between -8 and 8 calculated, calculated both using a differential equation and math.h.}}{2}}
\newlabel{fig:Arctan}{{1}{2}}
